<?xml version="1.0" encoding="UTF-8" standalone="no"?>
<!-- Created with Inkscape (http://www.inkscape.org/) -->

<svg
   width="51.365448mm"
   height="59.45985mm"
   viewBox="0 0 51.365448 59.45985"
   version="1.1"
   id="svg1"
   xml:space="preserve"
   xmlns="http://www.w3.org/2000/svg"
   xmlns:svg="http://www.w3.org/2000/svg"><defs
     id="defs1" /><g
     id="layer1"
     transform="translate(-52.896596,26.026649)"><path
       id="path11"
       style="fill:#efb352;fill-opacity:1;fill-rule:evenodd;stroke-width:1.196;stroke-linecap:square;stroke-dashoffset:2.34898;paint-order:markers fill stroke"
       d="M 69.856075,-13.971567 60.450116,-4.4948949 57.138279,-19.710961 Z" /><path
       id="path12"
       style="fill:#efb352;fill-opacity:1;fill-rule:evenodd;stroke-width:1.196;stroke-linecap:square;stroke-dashoffset:2.34898;paint-order:markers fill stroke"
       d="m 79.096884,-19.229503 -11.47761,8.673043 -1.780496,-15.470189 z" /><path
       style="fill:#efb352;fill-opacity:1;stroke:none;stroke-width:0.264583px;stroke-linecap:butt;stroke-linejoin:miter;stroke-opacity:1"
       d="m 52.896605,30.229855 c 0,0 0.49616,-17.092187 1.68769,-23.3844569 0.597305,-3.154267 0.693609,-4.256347 1.408884,-6.46789103 0.357637,-1.105772 0.706675,-2.06638897 1.222386,-3.29137797 0.515712,-1.22499 1.198098,-2.714354 1.505117,-3.221043 1.228075,-2.026754 5.066464,-7.4864781 9.808578,-9.8642881 4.742114,-2.377811 10.047166,-5.309579 16.100808,-5.135166 6.053643,0.174416 7.83435,0.867619 10.885149,2.099875 1.839356,0.742939 5.875553,4.028132 6.656663,5.044945 0.71781,0.934412 1.54415,3.067255 1.79258,4.3462511 0.45857,2.360863 0.5053,5.365745 -0.72062,7.159844 -1.78501,2.61230397 -3.322411,4.438569 -6.766862,5.94409 -3.444449,1.505524 -8.404712,3.450585 -9.896401,3.622014 -1.491689,0.171431 -18.301981,-0.331928 -18.301981,-0.331928 L 52.896605,30.229855 v 0"
       id="path13" /><circle
       style="fill:#ffffff;fill-opacity:1;fill-rule:evenodd;stroke:none;stroke-width:1.196;stroke-linecap:square;stroke-dashoffset:2.34898;stroke-opacity:1;paint-order:markers fill stroke"
       id="circle13"
       cx="74.568398"
       cy="-6.0615668"
       r="4.4948931" /><circle
       style="fill:#ffffff;fill-opacity:1;fill-rule:evenodd;stroke:none;stroke-width:1.196;stroke-linecap:square;stroke-dashoffset:2.34898;stroke-opacity:1;paint-order:markers fill stroke"
       id="circle14"
       cx="86.030571"
       cy="-10.771631"
       r="4.4948931" /><path
       style="fill:#efb352;fill-opacity:1;stroke:none;stroke-width:0.264583px;stroke-linecap:butt;stroke-linejoin:miter;stroke-opacity:1"
       d="m 91.236537,28.139015 c 0.09341,4.777904 0.08787,4.800581 -1.840473,4.941834 -1.92835,0.141251 -32.788199,0.783932 -34.018675,-0.125013 -1.230474,-0.908941 -2.480564,-1.009927 -2.480784,-2.725983 -2.22e-4,-1.716056 0.0062,-1.724335 0.0062,-1.724335 L 65.37674,6.1740381 c 0,0 23.308245,-1.012427 26.291649,-1.263231 2.983402,-0.250804 -7.312801,3.405407 -7.044739,4.800469 0.268063,1.3950619 6.519481,13.6498369 6.612887,18.4277389 z"
       id="path14" /></g></svg>
